info face="Arimo Bold" size=24 bold=1 italic=0 charset="" unicode=0 stretchH=100 smooth=1 aa=1 padding=0,0,0,0 spacing=0,0
common lineHeight=29 base=23 scaleW=512 scaleH=512 pages=1 packed=0
page id=0 file="arimo_24.png"
chars count=95
char id=32   x=0     y=0     width=0     height=0     xoffset=0     yoffset=23    xadvance=7     page=0  chnl=0 
char id=124   x=0     y=0     width=5     height=24     xoffset=1     yoffset=5    xadvance=7     page=0  chnl=0 
char id=125   x=5     y=0     width=10     height=24     xoffset=0     yoffset=5    xadvance=9     page=0  chnl=0 
char id=123   x=15     y=0     width=10     height=24     xoffset=0     yoffset=5    xadvance=9     page=0  chnl=0 
char id=93   x=25     y=0     width=8     height=24     xoffset=0     yoffset=5    xadvance=8     page=0  chnl=0 
char id=91   x=33     y=0     width=8     height=24     xoffset=1     yoffset=5    xadvance=8     page=0  chnl=0 
char id=41   x=41     y=0     width=8     height=24     xoffset=0     yoffset=5    xadvance=8     page=0  chnl=0 
char id=40   x=49     y=0     width=8     height=24     xoffset=1     yoffset=5    xadvance=8     page=0  chnl=0 
char id=106   x=57     y=0     width=8     height=24     xoffset=-1     yoffset=5    xadvance=7     page=0  chnl=0 
char id=64   x=65     y=0     width=22     height=23     xoffset=1     yoffset=5    xadvance=23     page=0  chnl=0 
char id=81   x=87     y=0     width=19     height=23     xoffset=0     yoffset=6    xadvance=18     page=0  chnl=0 
char id=36   x=106     y=0     width=14     height=22     xoffset=0     yoffset=5    xadvance=13     page=0  chnl=0 
char id=121   x=120     y=0     width=14     height=20     xoffset=0     yoffset=9    xadvance=13     page=0  chnl=0 
char id=113   x=134     y=0     width=14     height=20     xoffset=1     yoffset=9    xadvance=15     page=0  chnl=0 
char id=112   x=148     y=0     width=15     height=20     xoffset=1     yoffset=9    xadvance=15     page=0  chnl=0 
char id=103   x=163     y=0     width=14     height=20     xoffset=1     yoffset=9    xadvance=15     page=0  chnl=0 
char id=127   x=177     y=0     width=15     height=19     xoffset=2     yoffset=5    xadvance=18     page=0  chnl=0 
char id=38   x=192     y=0     width=17     height=19     xoffset=1     yoffset=5    xadvance=17     page=0  chnl=0 
char id=35   x=209     y=0     width=14     height=19     xoffset=0     yoffset=5    xadvance=13     page=0  chnl=0 
char id=37   x=223     y=0     width=21     height=19     xoffset=0     yoffset=5    xadvance=18     page=0  chnl=0 
char id=92   x=244     y=0     width=8     height=19     xoffset=0     yoffset=5    xadvance=7     page=0  chnl=0 
char id=47   x=252     y=0     width=8     height=19     xoffset=0     yoffset=5    xadvance=7     page=0  chnl=0 
char id=59   x=260     y=0     width=5     height=19     xoffset=2     yoffset=9    xadvance=7     page=0  chnl=0 
char id=63   x=265     y=0     width=14     height=19     xoffset=1     yoffset=5    xadvance=15     page=0  chnl=0 
char id=33   x=279     y=0     width=6     height=19     xoffset=1     yoffset=5    xadvance=7     page=0  chnl=0 
char id=48   x=285     y=0     width=14     height=19     xoffset=0     yoffset=5    xadvance=13     page=0  chnl=0 
char id=57   x=299     y=0     width=14     height=19     xoffset=0     yoffset=5    xadvance=13     page=0  chnl=0 
char id=56   x=313     y=0     width=14     height=19     xoffset=0     yoffset=5    xadvance=13     page=0  chnl=0 
char id=55   x=327     y=0     width=12     height=19     xoffset=1     yoffset=5    xadvance=13     page=0  chnl=0 
char id=54   x=339     y=0     width=14     height=19     xoffset=0     yoffset=5    xadvance=13     page=0  chnl=0 
char id=53   x=353     y=0     width=14     height=19     xoffset=0     yoffset=5    xadvance=13     page=0  chnl=0 
char id=52   x=367     y=0     width=14     height=19     xoffset=0     yoffset=5    xadvance=13     page=0  chnl=0 
char id=51   x=381     y=0     width=14     height=19     xoffset=0     yoffset=5    xadvance=13     page=0  chnl=0 
char id=50   x=395     y=0     width=14     height=19     xoffset=0     yoffset=5    xadvance=13     page=0  chnl=0 
char id=49   x=409     y=0     width=13     height=19     xoffset=1     yoffset=5    xadvance=13     page=0  chnl=0 
char id=108   x=422     y=0     width=6     height=19     xoffset=1     yoffset=5    xadvance=7     page=0  chnl=0 
char id=107   x=428     y=0     width=13     height=19     xoffset=1     yoffset=5    xadvance=13     page=0  chnl=0 
char id=105   x=441     y=0     width=6     height=19     xoffset=1     yoffset=5    xadvance=7     page=0  chnl=0 
char id=104   x=447     y=0     width=14     height=19     xoffset=1     yoffset=5    xadvance=15     page=0  chnl=0 
char id=102   x=461     y=0     width=10     height=19     xoffset=0     yoffset=5    xadvance=8     page=0  chnl=0 
char id=100   x=471     y=0     width=14     height=19     xoffset=1     yoffset=5    xadvance=15     page=0  chnl=0 
char id=98   x=485     y=0     width=15     height=19     xoffset=1     yoffset=5    xadvance=15     page=0  chnl=0 
char id=90   x=0     y=24     width=15     height=19     xoffset=0     yoffset=5    xadvance=14     page=0  chnl=0 
char id=89   x=15     y=24     width=16     height=19     xoffset=0     yoffset=5    xadvance=15     page=0  chnl=0 
char id=88   x=31     y=24     width=17     height=19     xoffset=0     yoffset=5    xadvance=16     page=0  chnl=0 
char id=87   x=48     y=24     width=24     height=19     xoffset=0     yoffset=5    xadvance=23     page=0  chnl=0 
char id=86   x=72     y=24     width=17     height=19     xoffset=0     yoffset=5    xadvance=16     page=0  chnl=0 
char id=85   x=89     y=24     width=16     height=19     xoffset=1     yoffset=5    xadvance=17     page=0  chnl=0 
char id=84   x=105     y=24     width=16     height=19     xoffset=0     yoffset=5    xadvance=15     page=0  chnl=0 
char id=83   x=121     y=24     width=17     height=19     xoffset=0     yoffset=5    xadvance=16     page=0  chnl=0 
char id=82   x=138     y=24     width=17     height=19     xoffset=1     yoffset=5    xadvance=17     page=0  chnl=0 
char id=80   x=155     y=24     width=16     height=19     xoffset=1     yoffset=5    xadvance=16     page=0  chnl=0 
char id=78   x=171     y=24     width=16     height=19     xoffset=1     yoffset=5    xadvance=17     page=0  chnl=0 
char id=77   x=187     y=24     width=20     height=19     xoffset=1     yoffset=5    xadvance=21     page=0  chnl=0 
char id=76   x=207     y=24     width=15     height=19     xoffset=1     yoffset=5    xadvance=15     page=0  chnl=0 
char id=75   x=222     y=24     width=17     height=19     xoffset=1     yoffset=5    xadvance=17     page=0  chnl=0 
char id=74   x=239     y=24     width=13     height=19     xoffset=0     yoffset=5    xadvance=13     page=0  chnl=0 
char id=73   x=252     y=24     width=6     height=19     xoffset=1     yoffset=5    xadvance=7     page=0  chnl=0 
char id=72   x=258     y=24     width=16     height=19     xoffset=1     yoffset=5    xadvance=17     page=0  chnl=0 
char id=71   x=274     y=24     width=18     height=19     xoffset=1     yoffset=5    xadvance=19     page=0  chnl=0 
char id=70   x=292     y=24     width=15     height=19     xoffset=1     yoffset=5    xadvance=15     page=0  chnl=0 
char id=69   x=307     y=24     width=16     height=19     xoffset=1     yoffset=5    xadvance=16     page=0  chnl=0 
char id=68   x=323     y=24     width=17     height=19     xoffset=1     yoffset=5    xadvance=17     page=0  chnl=0 
char id=67   x=340     y=24     width=18     height=19     xoffset=0     yoffset=5    xadvance=17     page=0  chnl=0 
char id=66   x=358     y=24     width=16     height=19     xoffset=1     yoffset=5    xadvance=17     page=0  chnl=0 
char id=65   x=374     y=24     width=18     height=19     xoffset=0     yoffset=5    xadvance=17     page=0  chnl=0 
char id=116   x=392     y=24     width=9     height=18     xoffset=0     yoffset=6    xadvance=8     page=0  chnl=0 
char id=79   x=401     y=24     width=19     height=18     xoffset=0     yoffset=6    xadvance=18     page=0  chnl=0 
char id=58   x=420     y=24     width=5     height=15     xoffset=2     yoffset=9    xadvance=7     page=0  chnl=0 
char id=122   x=425     y=24     width=13     height=15     xoffset=0     yoffset=9    xadvance=12     page=0  chnl=0 
char id=120   x=438     y=24     width=14     height=15     xoffset=0     yoffset=9    xadvance=13     page=0  chnl=0 
char id=119   x=452     y=24     width=22     height=15     xoffset=-1     yoffset=9    xadvance=19     page=0  chnl=0 
char id=118   x=474     y=24     width=14     height=15     xoffset=0     yoffset=9    xadvance=13     page=0  chnl=0 
char id=117   x=488     y=24     width=14     height=15     xoffset=1     yoffset=9    xadvance=15     page=0  chnl=0 
char id=115   x=0     y=43     width=14     height=15     xoffset=0     yoffset=9    xadvance=13     page=0  chnl=0 
char id=114   x=14     y=43     width=9     height=15     xoffset=1     yoffset=9    xadvance=9     page=0  chnl=0 
char id=111   x=23     y=43     width=16     height=15     xoffset=0     yoffset=9    xadvance=15     page=0  chnl=0 
char id=110   x=39     y=43     width=14     height=15     xoffset=1     yoffset=9    xadvance=15     page=0  chnl=0 
char id=109   x=53     y=43     width=20     height=15     xoffset=1     yoffset=9    xadvance=21     page=0  chnl=0 
char id=101   x=73     y=43     width=14     height=15     xoffset=0     yoffset=9    xadvance=13     page=0  chnl=0 
char id=99   x=87     y=43     width=14     height=15     xoffset=0     yoffset=9    xadvance=13     page=0  chnl=0 
char id=97   x=101     y=43     width=15     height=15     xoffset=0     yoffset=9    xadvance=13     page=0  chnl=0 
char id=62   x=116     y=43     width=14     height=14     xoffset=1     yoffset=9    xadvance=14     page=0  chnl=0 
char id=60   x=130     y=43     width=14     height=14     xoffset=1     yoffset=9    xadvance=14     page=0  chnl=0 
char id=43   x=144     y=43     width=14     height=13     xoffset=1     yoffset=9    xadvance=14     page=0  chnl=0 
char id=94   x=158     y=43     width=15     height=12     xoffset=0     yoffset=5    xadvance=14     page=0  chnl=0 
char id=42   x=173     y=43     width=10     height=11     xoffset=0     yoffset=5    xadvance=9     page=0  chnl=0 
char id=61   x=183     y=43     width=14     height=10     xoffset=1     yoffset=10    xadvance=14     page=0  chnl=0 
char id=44   x=197     y=43     width=6     height=10     xoffset=1     yoffset=18    xadvance=7     page=0  chnl=0 
char id=39   x=203     y=43     width=5     height=8     xoffset=1     yoffset=5    xadvance=6     page=0  chnl=0 
char id=34   x=208     y=43     width=10     height=8     xoffset=1     yoffset=5    xadvance=11     page=0  chnl=0 
char id=126   x=218     y=43     width=15     height=6     xoffset=0     yoffset=12    xadvance=14     page=0  chnl=0 
char id=46   x=233     y=43     width=6     height=6     xoffset=1     yoffset=18    xadvance=7     page=0  chnl=0 
char id=96   x=239     y=43     width=8     height=6     xoffset=0     yoffset=4    xadvance=8     page=0  chnl=0 
char id=45   x=247     y=43     width=9     height=5     xoffset=0     yoffset=14    xadvance=8     page=0  chnl=0 
char id=95   x=256     y=43     width=16     height=3     xoffset=-1     yoffset=24    xadvance=13     page=0  chnl=0 
